Output type conversion
…
This functionality is important as the hubverse moves toward greater support of the sample output type, as dealing with samples makes up a significant portion of use cases.

Implementation will also help us think about how we want to make ensembles of sample type forecasts within hubEnsembles, which has been a long-discussed topic with different iterations of ideas.

As of now, we do not provide many tools to deal with the sample output type

Example 1: Samples -> Other output types

First, we print an example of sample output type forecasts from hubExamples:

hubExamples::forecast_outputs |>
  filter(output_type == "sample", output_type_id %in% 4301:4305) |>
  select(-"target_end_date") # remove target_end_date column for readability
#> # A tibble: 100 × 8
#>    model_id          location reference_date horizon target          output_type output_type_id value
#>    <chr>             <chr>    <date>           <int> <chr>           <chr>       <chr>          <dbl>
#>  1 Flusight-baseline 48       2022-11-19           0 wk inc flu hosp sample      4301            1032
#>  2 Flusight-baseline 48       2022-11-19           0 wk inc flu hosp sample      4302            1169
#>  3 Flusight-baseline 48       2022-11-19           0 wk inc flu hosp sample      4303            1062
#>  4 Flusight-baseline 48       2022-11-19           0 wk inc flu hosp sample      4304            1063
#>  5 Flusight-baseline 48       2022-11-19           0 wk inc flu hosp sample      4305            1068
#>  6 Flusight-baseline 48       2022-11-19           1 wk inc flu hosp sample      4301             983
#>  7 Flusight-baseline 48       2022-11-19           1 wk inc flu hosp sample      4302            1093
#>  8 Flusight-baseline 48       2022-11-19           1 wk inc flu hosp sample      4303            1101
#>  9 Flusight-baseline 48       2022-11-19           1 wk inc flu hosp sample      4304            1078
#> 10 Flusight-baseline 48       2022-11-19           1 wk inc flu hosp sample      4305            1081
#> # ℹ 90 more rows
…
converted_outputs <- hubExamples::forecast_outputs |>
  filter(output_type == "sample") |>
  convert_output_type(
    new_output_type = c("quantile", "mean", "median"),
    new_output_type_id = list("quantile" = c(0.05, 0.1, 0.25, 0.5, 0.75, 0.9, 0.95),
                              "mean" = NA,
                              "median" = NA)
  )

converted_outputs |>
  filter(output_type_id %in% c(0.25, 0.5, 0.75, NA)) |>
  arrange("reference_date", "horizon") |>
  select(-"target_end_date") # remove target_end_date column for readability
#> # A tibble: 240 × 8
#>    model_id          location reference_date horizon target          output_type output_type_id value
#>    <chr>             <chr>    <date>           <int> <chr>           <chr>                <dbl> <dbl>
#>  1 Flusight-baseline 25       2022-11-19           0 wk inc flu hosp quantile              0.25  42  
#>  2 Flusight-baseline 25       2022-11-19           0 wk inc flu hosp quantile              0.5   50.5
#>  3 Flusight-baseline 25       2022-11-19           0 wk inc flu hosp quantile              0.75  56  
#>  4 Flusight-baseline 25       2022-11-19           1 wk inc flu hosp quantile              0.25  33  
#>  5 Flusight-baseline 25       2022-11-19           1 wk inc flu hosp quantile              0.5   50  
#>  6 Flusight-baseline 25       2022-11-19           1 wk inc flu hosp quantile              0.75  67.2
#>  7 Flusight-baseline 25       2022-11-19           2 wk inc flu hosp quantile              0.25  31.5
#>  8 Flusight-baseline 25       2022-11-19           2 wk inc flu hosp quantile              0.5   55.5
#>  9 Flusight-baseline 25       2022-11-19           2 wk inc flu hosp quantile              0.75  72  
#> 10 Flusight-baseline 25       2022-11-19           3 wk inc flu hosp quantile              0.25  29.8
#> # ℹ 230 more rows
…
Plotting the quantiles instead of the individual sample trajectories has the advantage of being able to clearly display multiple forecasts on the same plot.

Example 2: Quantile -> PMF

Let’s print an example of quantile output type forecasts from hubExamples:

hubExamples::forecast_outputs |>
  filter(output_type == "quantile", output_type_id %in% c(0.25, 0.5, 0.75)) |>
  select(-"target_end_date") # remove target_end_date column for readability
#> # A tibble: 144 × 8
#>    model_id          location reference_date horizon target          output_type output_type_id value
#>    <chr>             <chr>    <date>           <int> <chr>           <chr>       <chr>          <dbl>
#>  1 Flusight-baseline 25       2022-11-19           0 wk inc flu hosp quantile    0.25              45
#>  2 Flusight-baseline 25       2022-11-19           0 wk inc flu hosp quantile    0.5               51
#>  3 Flusight-baseline 25       2022-11-19           0 wk inc flu hosp quantile    0.75              57
#>  4 Flusight-baseline 25       2022-11-19           1 wk inc flu hosp quantile    0.25              38
#>  5 Flusight-baseline 25       2022-11-19           1 wk inc flu hosp quantile    0.5               51
#>  6 Flusight-baseline 25       2022-11-19           1 wk inc flu hosp quantile    0.75              64
#>  7 Flusight-baseline 25       2022-11-19           2 wk inc flu hosp quantile    0.25              33
#>  8 Flusight-baseline 25       2022-11-19           2 wk inc flu hosp quantile    0.5               51
#>  9 Flusight-baseline 25       2022-11-19           2 wk inc flu hosp quantile    0.75              69
#> 10 Flusight-baseline 25       2022-11-19           3 wk inc flu hosp quantile    0.25              29
#> # ℹ 134 more rows
…
pmf_outputs <- hubExamples::forecast_outputs |>
  filter(output_type == "quantile") |>
  idforecastutils::transform_quantile_to_pmf(bin_endpoints = bin_endpoints) |>
  ungroup()

pmf_outputs |>
  select(-"target_end_date") # remove target_end_date column for readability
#> # A tibble: 192 × 8
#>    model_id          location reference_date horizon target          output_type output_type_id    value
#>    <chr>             <chr>    <date>           <int> <chr>           <chr>       <chr>             <dbl>
#>  1 Flusight-baseline 25       2022-11-19           0 wk inc flu hosp pmf         low            1.00e+ 0
#>  2 Flusight-baseline 25       2022-11-19           0 wk inc flu hosp pmf         moderate       2.36e- 8
#>  3 Flusight-baseline 25       2022-11-19           0 wk inc flu hosp pmf         high           0       
#>  4 Flusight-baseline 25       2022-11-19           0 wk inc flu hosp pmf         very high      0       
#>  5 Flusight-baseline 25       2022-11-19           1 wk inc flu hosp pmf         low            1.00e+ 0
#>  6 Flusight-baseline 25       2022-11-19           1 wk inc flu hosp pmf         moderate       3.30e- 4
#>  7 Flusight-baseline 25       2022-11-19           1 wk inc flu hosp pmf         high           8.59e-14
#>  8 Flusight-baseline 25       2022-11-19           1 wk inc flu hosp pmf         very high      0       
#>  9 Flusight-baseline 25       2022-11-19           2 wk inc flu hosp pmf         low            1.00e+ 0
#> 10 Flusight-baseline 25       2022-11-19           2 wk inc flu hosp pmf         moderate       4.35e- 4
#> # ℹ 182 more rows
…
