Target data formats and organisation supplementary materials
…
Finally let’s access our data and also perform some filtering on read. Notice how we do not need to explicitly define the partitioning used to write the data:

arrow::open_dataset(oracle_dataset_path, format = "parquet") |>
  dplyr::filter(.data[["target_end_date"]] == "2023-01-14") |>
  dplyr::collect()

# A tibble: 5,724 × 6
   location target       output_type output_type_id oracle_value target_end_date
 * <chr>    <chr>        <chr>       <chr>                 <dbl> <chr>          
 1 US       wk inc flu … quantile    <NA>                   6692 2023-01-14     
 2 01       wk inc flu … quantile    <NA>                     94 2023-01-14     
 3 02       wk inc flu … quantile    <NA>                      6 2023-01-14     
 4 04       wk inc flu … quantile    <NA>                    140 2023-01-14     
 5 05       wk inc flu … quantile    <NA>                     98 2023-01-14     
 6 06       wk inc flu … quantile    <NA>                    354 2023-01-14     
 7 08       wk inc flu … quantile    <NA>                     85 2023-01-14     
 8 09       wk inc flu … quantile    <NA>                     72 2023-01-14     
 9 10       wk inc flu … quantile    <NA>                     11 2023-01-14     
10 11       wk inc flu … quantile    <NA>                      5 2023-01-14     
# ℹ 5,714 more rows
…
arrow::open_dataset(oracle_dataset_path, format = "parquet") |>
  dplyr::filter(.data[["target_end_date"]] == "2023-01-14") |>
  dplyr::collect()

# A tibble: 5,724 × 6
   location output_type output_type_id oracle_value target       target_end_date
 * <chr>    <chr>       <chr>                 <dbl> <chr>        <chr>          
 1 US       pmf         low                       1 wk flu hosp… 2023-01-14     
 2 US       pmf         moderate                  0 wk flu hosp… 2023-01-14     
 3 US       pmf         high                      0 wk flu hosp… 2023-01-14     
 4 US       pmf         very high                 0 wk flu hosp… 2023-01-14     
 5 01       pmf         low                       1 wk flu hosp… 2023-01-14     
 6 01       pmf         moderate                  0 wk flu hosp… 2023-01-14     
 7 01       pmf         high                      0 wk flu hosp… 2023-01-14     
 8 01       pmf         very high                 0 wk flu hosp… 2023-01-14     
 9 02       pmf         low                       1 wk flu hosp… 2023-01-14     
10 02       pmf         moderate                  0 wk flu hosp… 2023-01-14     
# ℹ 5,714 more rows
…
arrow::open_dataset(oracle_dataset_path, format = "parquet") |>
  dplyr::filter(.data[["target_end_date"]] == "2023-01-14") |>
  dplyr::collect()

# A tibble: 5,724 × 6
   location target       output_type_id oracle_value output_type target_end_date
 * <chr>    <chr>        <chr>                 <dbl> <chr>       <chr>          
 1 US       wk flu hosp… 0.25                      0 cdf         2023-01-14     
 2 US       wk flu hosp… 0.5                       0 cdf         2023-01-14     
 3 US       wk flu hosp… 0.75                      0 cdf         2023-01-14     
 4 US       wk flu hosp… 1                         0 cdf         2023-01-14     
 5 US       wk flu hosp… 1.25                      0 cdf         2023-01-14     
 6 US       wk flu hosp… 1.5                       0 cdf         2023-01-14     
 7 US       wk flu hosp… 1.75                      0 cdf         2023-01-14     
 8 US       wk flu hosp… 2                         0 cdf         2023-01-14     
 9 US       wk flu hosp… 2.25                      1 cdf         2023-01-14     
10 US       wk flu hosp… 2.5                       1 cdf         2023-01-14     
# ℹ 5,714 more rows
…
arrow::open_csv_dataset(oracle_dataset_path) |>
  dplyr::collect()

# A tibble: 200,340 × 6
   location target       output_type output_type_id oracle_value target_end_date
   <chr>    <chr>        <chr>       <chr>                 <int> <chr>          
 1 US       wk inc flu … quantile    <NA>                   2380 2022-10-22     
 2 01       wk inc flu … quantile    <NA>                    141 2022-10-22     
 3 02       wk inc flu … quantile    <NA>                      3 2022-10-22     
 4 04       wk inc flu … quantile    <NA>                     22 2022-10-22     
 5 05       wk inc flu … quantile    <NA>                     50 2022-10-22     
 6 06       wk inc flu … quantile    <NA>                    124 2022-10-22     
 7 08       wk inc flu … quantile    <NA>                     15 2022-10-22     
 8 09       wk inc flu … quantile    <NA>                      9 2022-10-22     
 9 10       wk inc flu … quantile    <NA>                      1 2022-10-22     
10 11       wk inc flu … quantile    <NA>                      8 2022-10-22     
# ℹ 200,330 more rows
…
target-data/oracle-output/target_end_date=2023-06-10
target-data/oracle-output/target_end_date=2023-06-10/part-0.parquet

# Filter on older and new round_id (latter returns 0 rows)
arrow::open_dataset(oracle_dataset_path, format = "parquet") |>
  dplyr::filter(.data[["target_end_date"]] == "2023-01-14") |>
  dplyr::collect()

# A tibble: 5,724 × 6
   location target       output_type output_type_id oracle_value target_end_date
 * <chr>    <chr>        <chr>       <chr>                 <dbl> <chr>          
 1 US       wk inc flu … quantile    <NA>                   6692 2023-01-14     
 2 01       wk inc flu … quantile    <NA>                     94 2023-01-14     
 3 02       wk inc flu … quantile    <NA>                      6 2023-01-14     
 4 04       wk inc flu … quantile    <NA>                    140 2023-01-14     
 5 05       wk inc flu … quantile    <NA>                     98 2023-01-14     
 6 06       wk inc flu … quantile    <NA>                    354 2023-01-14     
 7 08       wk inc flu … quantile    <NA>                     85 2023-01-14     
 8 09       wk inc flu … quantile    <NA>                     72 2023-01-14     
 9 10       wk inc flu … quantile    <NA>                     11 2023-01-14     
10 11       wk inc flu … quantile    <NA>                      5 2023-01-14     
# ℹ 5,714 more rows
…
target-data/oracle-output/target_end_date=2023-06-10
target-data/oracle-output/target_end_date=2023-06-10/part-0.parquet
target-data/oracle-output/target_end_date=2023-06-17
target-data/oracle-output/target_end_date=2023-06-17/part-0.parquet

# Filter on older and new round_id
arrow::open_dataset(oracle_dataset_path, format = "parquet") |>
  dplyr::filter(.data[["target_end_date"]] == "2023-01-14") |>
  dplyr::collect()

# A tibble: 5,724 × 6
   location target       output_type output_type_id oracle_value target_end_date
 * <chr>    <chr>        <chr>       <chr>                 <dbl> <chr>          
 1 US       wk inc flu … quantile    <NA>                   6692 2023-01-14     
 2 01       wk inc flu … quantile    <NA>                     94 2023-01-14     
 3 02       wk inc flu … quantile    <NA>                      6 2023-01-14     
 4 04       wk inc flu … quantile    <NA>                    140 2023-01-14     
 5 05       wk inc flu … quantile    <NA>                     98 2023-01-14     
 6 06       wk inc flu … quantile    <NA>                    354 2023-01-14     
 7 08       wk inc flu … quantile    <NA>                     85 2023-01-14     
 8 09       wk inc flu … quantile    <NA>                     72 2023-01-14     
 9 10       wk inc flu … quantile    <NA>                     11 2023-01-14     
10 11       wk inc flu … quantile    <NA>                      5 2023-01-14     
# ℹ 5,714 more rows

arrow::open_dataset(oracle_dataset_path, format = "parquet") |>
  dplyr::filter(.data[["target_end_date"]] == new_round_id) |>
  dplyr::collect()

# A tibble: 5,724 × 6
   location target       output_type output_type_id oracle_value target_end_date
 * <chr>    <chr>        <chr>       <chr>                 <dbl> <chr>          
 1 US       wk inc flu … quantile    <NA>                    850 2023-06-17     
 2 01       wk inc flu … quantile    <NA>                      6 2023-06-17     
 3 02       wk inc flu … quantile    <NA>                      5 2023-06-17     
 4 04       wk inc flu … quantile    <NA>                     47 2023-06-17     
 5 05       wk inc flu … quantile    <NA>                      4 2023-06-17     
 6 06       wk inc flu … quantile    <NA>                     35 2023-06-17     
 7 08       wk inc flu … quantile    <NA>                      5 2023-06-17     
 8 09       wk inc flu … quantile    <NA>                      6 2023-06-17     
 9 10       wk inc flu … quantile    <NA>                      0 2023-06-17     
10 11       wk inc flu … quantile    <NA>                      1 2023-06-17     
# ℹ 5,714 more rows

Note I would need to investigate further how this would work if the new data added did not cleanly contain new data in the column on which the dataset is being partitioned, which currently results in a new directory being added.

Opening single files

Finally this approach can also be used to open single files, additionally allowing for filtering only required data on read.

arrow::open_csv_dataset(oracle_path) |>
  dplyr::collect()

# A tibble: 200,340 × 6
   location target_end_date target       output_type output_type_id oracle_value
   <chr>    <date>          <chr>        <chr>       <chr>                 <int>
 1 US       2022-10-22      wk inc flu … quantile    <NA>                   2380
 2 01       2022-10-22      wk inc flu … quantile    <NA>                    141
 3 02       2022-10-22      wk inc flu … quantile    <NA>                      3
 4 04       2022-10-22      wk inc flu … quantile    <NA>                     22
 5 05       2022-10-22      wk inc flu … quantile    <NA>                     50
 6 06       2022-10-22      wk inc flu … quantile    <NA>                    124
 7 08       2022-10-22      wk inc flu … quantile    <NA>                     15
 8 09       2022-10-22      wk inc flu … quantile    <NA>                      9
 9 10       2022-10-22      wk inc flu … quantile    <NA>                      1
10 11       2022-10-22      wk inc flu … quantile    <NA>                      8
# ℹ 200,330 more rows

arrow::open_dataset(oracle_dataset_path, format = "parquet") |>
  dplyr::filter(.data[["target_end_date"]] == "2023-01-14") |>
  dplyr::collect()

# A tibble: 5,724 × 6
   location target       output_type output_type_id oracle_value target_end_date
 * <chr>    <chr>        <chr>       <chr>                 <dbl> <chr>          
 1 US       wk inc flu … quantile    <NA>                   6692 2023-01-14     
 2 01       wk inc flu … quantile    <NA>                     94 2023-01-14     
 3 02       wk inc flu … quantile    <NA>                      6 2023-01-14     
 4 04       wk inc flu … quantile    <NA>                    140 2023-01-14     
 5 05       wk inc flu … quantile    <NA>                     98 2023-01-14     
 6 06       wk inc flu … quantile    <NA>                    354 2023-01-14     
 7 08       wk inc flu … quantile    <NA>                     85 2023-01-14     
 8 09       wk inc flu … quantile    <NA>                     72 2023-01-14     
 9 10       wk inc flu … quantile    <NA>                     11 2023-01-14     
10 11       wk inc flu … quantile    <NA>                      5 2023-01-14     
# ℹ 5,714 more rows
…
arrow::open_dataset(oracle_dataset_path, format = "parquet") |>
  dplyr::filter(.data[["target_end_date"]] == "2023-01-14") |>
  dplyr::collect()

# A tibble: 5,724 × 6
   location output_type output_type_id oracle_value target       target_end_date
 * <chr>    <chr>       <chr>                 <dbl> <chr>        <chr>          
 1 US       pmf         low                       1 wk flu hosp… 2023-01-14     
 2 US       pmf         moderate                  0 wk flu hosp… 2023-01-14     
 3 US       pmf         high                      0 wk flu hosp… 2023-01-14     
 4 US       pmf         very high                 0 wk flu hosp… 2023-01-14     
 5 01       pmf         low                       1 wk flu hosp… 2023-01-14     
 6 01       pmf         moderate                  0 wk flu hosp… 2023-01-14     
 7 01       pmf         high                      0 wk flu hosp… 2023-01-14     
 8 01       pmf         very high                 0 wk flu hosp… 2023-01-14     
 9 02       pmf         low                       1 wk flu hosp… 2023-01-14     
10 02       pmf         moderate                  0 wk flu hosp… 2023-01-14     
# ℹ 5,714 more rows
…
Applying the schema to partitioned parquet datasets is smooth and straight forward.

# Create parquet partitioned dataset
partition_dataset(oracle_dataset_path)
oracle_schema <- create_oracle_schema(hub_path, oracle_dataset_path)

ℹ Updating superseded URL `Infectious-Disease-Modeling-hubs` to `hubverse-org`

arrow::open_dataset(oracle_dataset_path,
  format = "parquet",
  schema = oracle_schema
) |>
  dplyr::collect()

# A tibble: 200,340 × 6
   target       location target_end_date output_type output_type_id oracle_value
   <chr>        <chr>    <date>          <chr>       <chr>                 <dbl>
 1 wk inc flu … US       2022-10-22      quantile    <NA>                   2380
 2 wk inc flu … 01       2022-10-22      quantile    <NA>                    141
 3 wk inc flu … 02       2022-10-22      quantile    <NA>                      3
 4 wk inc flu … 04       2022-10-22      quantile    <NA>                     22
 5 wk inc flu … 05       2022-10-22      quantile    <NA>                     50
 6 wk inc flu … 06       2022-10-22      quantile    <NA>                    124
 7 wk inc flu … 08       2022-10-22      quantile    <NA>                     15
 8 wk inc flu … 09       2022-10-22      quantile    <NA>                      9
 9 wk inc flu … 10       2022-10-22      quantile    <NA>                      1
10 wk inc flu … 11       2022-10-22      quantile    <NA>                      8
# ℹ 200,330 more rows
…
Error in `compute.Dataset()`:
! Invalid: Could not open CSV input source '/private/var/folders/p2/ywqk6z3n5nq3csvhfnvwfpzh0000gp/T/Rtmp9fxA0f/file57fa23ec3a07/complex-forecast-hub/target-data/oracle-output/target_end_date=2022-10-22/part-0.csv': Invalid: CSV parse error: Row #1: Expected 6 columns, got 5: "location","target","output_type","output_type_id","oracle_value"

Using the col_types argument instead opens the dataset but does not apply the schema to the partitioning column:

arrow::open_dataset(oracle_dataset_path,
  format = "csv",
  col_types = schema,
  quoted_na = TRUE
) |>
  dplyr::collect()

# A tibble: 200,340 × 6
   location target       output_type output_type_id oracle_value target_end_date
   <chr>    <chr>        <chr>       <chr>                 <dbl> <chr>          
 1 US       wk inc flu … quantile    <NA>                   2380 2022-10-22     
 2 01       wk inc flu … quantile    <NA>                    141 2022-10-22     
 3 02       wk inc flu … quantile    <NA>                      3 2022-10-22     
 4 04       wk inc flu … quantile    <NA>                     22 2022-10-22     
 5 05       wk inc flu … quantile    <NA>                     50 2022-10-22     
 6 06       wk inc flu … quantile    <NA>                    124 2022-10-22     
 7 08       wk inc flu … quantile    <NA>                     15 2022-10-22     
 8 09       wk inc flu … quantile    <NA>                      9 2022-10-22     
 9 10       wk inc flu … quantile    <NA>                      1 2022-10-22     
10 11       wk inc flu … quantile    <NA>                      8 2022-10-22     
# ℹ 200,330 more rows

Annoying the only way to correctly apply schema to the partitioning columns of csv partitioned datasets, the data type needs to be supplied explicitly through the partitioning argument

partitioning <- arrow::hive_partition(
  target_end_date = schema[["target_end_date"]]$type
)
arrow::open_dataset(oracle_dataset_path,
  format = "csv",
  col_types = schema,
  quoted_na = TRUE,
  partitioning = partitioning
) |>
  dplyr::collect()

# A tibble: 200,340 × 6
   location target       output_type output_type_id oracle_value target_end_date
   <chr>    <chr>        <chr>       <chr>                 <dbl> <date>         
 1 US       wk inc flu … quantile    <NA>                   2380 2022-10-22     
 2 01       wk inc flu … quantile    <NA>                    141 2022-10-22     
 3 02       wk inc flu … quantile    <NA>                      3 2022-10-22     
 4 04       wk inc flu … quantile    <NA>                     22 2022-10-22     
 5 05       wk inc flu … quantile    <NA>                     50 2022-10-22     
 6 06       wk inc flu … quantile    <NA>                    124 2022-10-22     
 7 08       wk inc flu … quantile    <NA>                     15 2022-10-22     
 8 09       wk inc flu … quantile    <NA>                      9 2022-10-22     
 9 10       wk inc flu … quantile    <NA>                      1 2022-10-22     
10 11       wk inc flu … quantile    <NA>                      8 2022-10-22     
# ℹ 200,330 more rows
…
partitioning <- arrow::hive_partition(!!!purrr::map(
  purrr::set_names(partition_cols),
  ~ schema[[.x]]$type
))
arrow::open_dataset(oracle_dataset_path,
  format = "csv",
  col_types = schema,
  quoted_na = TRUE,
  partitioning = partitioning
) |>
  dplyr::collect()

# A tibble: 200,340 × 6
   location target       output_type output_type_id oracle_value target_end_date
   <chr>    <chr>        <chr>       <chr>                 <dbl> <date>         
 1 US       wk inc flu … quantile    <NA>                   2380 2022-10-22     
 2 01       wk inc flu … quantile    <NA>                    141 2022-10-22     
 3 02       wk inc flu … quantile    <NA>                      3 2022-10-22     
 4 04       wk inc flu … quantile    <NA>                     22 2022-10-22     
 5 05       wk inc flu … quantile    <NA>                     50 2022-10-22     
 6 06       wk inc flu … quantile    <NA>                    124 2022-10-22     
 7 08       wk inc flu … quantile    <NA>                     15 2022-10-22     
 8 09       wk inc flu … quantile    <NA>                      9 2022-10-22     
 9 10       wk inc flu … quantile    <NA>                      1 2022-10-22     
10 11       wk inc flu … quantile    <NA>                      8 2022-10-22     
# ℹ 200,330 more rows
…
arrow::open_csv_dataset(oracle_dataset_path) |>
  dplyr::collect()

# A tibble: 200,340 × 6
   location target_end_date target       output_type output_type_id oracle_value
   <chr>    <date>          <chr>        <chr>       <chr>                 <int>
 1 US       2022-10-22      wk inc flu … quantile    <NA>                   2380
 2 01       2022-10-22      wk inc flu … quantile    <NA>                    141
 3 02       2022-10-22      wk inc flu … quantile    <NA>                      3
 4 04       2022-10-22      wk inc flu … quantile    <NA>                     22
 5 05       2022-10-22      wk inc flu … quantile    <NA>                     50
 6 06       2022-10-22      wk inc flu … quantile    <NA>                    124
 7 08       2022-10-22      wk inc flu … quantile    <NA>                     15
 8 09       2022-10-22      wk inc flu … quantile    <NA>                      9
 9 10       2022-10-22      wk inc flu … quantile    <NA>                      1
10 11       2022-10-22      wk inc flu … quantile    <NA>                      8
# ℹ 200,330 more rows
…
